    z,     phi,       u,       T
    d,        ,  rt(gd),      gd
 0.00, 0.49950, 0.04559, 0.01480
 0.25, 0.59152, 0.04992, 0.01605
 0.50, 0.66435, 0.05642, 0.01790
 0.75, 0.70415, 0.06687, 0.02081
 1.00, 0.71490, 0.08280, 0.02516
 1.25, 0.71370, 0.10358, 0.03094
 1.50, 0.71085, 0.12675, 0.03793
 1.75, 0.70598, 0.15114, 0.04589
 2.00, 0.70091, 0.17702, 0.05419
 2.25, 0.69812, 0.20354, 0.06201
 2.50, 0.69288, 0.22991, 0.06948
 2.75, 0.68190, 0.25724, 0.07741
 3.00, 0.67053, 0.28639, 0.08607
 3.25, 0.66292, 0.31640, 0.09537
 3.50, 0.65737, 0.34662, 0.10556
 3.75, 0.65380, 0.37735, 0.11685
 4.00, 0.65355, 0.40823, 0.12862
 4.25, 0.65378, 0.43877, 0.13960
 4.50, 0.65227, 0.46941, 0.14892
 4.75, 0.65167, 0.50008, 0.15646
 5.00, 0.65275, 0.52992, 0.16261
 5.25, 0.65265, 0.55914, 0.16835
 5.50, 0.65164, 0.58882, 0.17502
 5.75, 0.65124, 0.61900, 0.18325
 6.00, 0.64863, 0.64956, 0.19279
 6.25, 0.64269, 0.68143, 0.20317
 6.50, 0.63843, 0.71466, 0.21399
 6.75, 0.63807, 0.74775, 0.22463
 7.00, 0.63730, 0.78034, 0.23428
 7.25, 0.63448, 0.81374, 0.24254
 7.50, 0.63230, 0.84874, 0.24938
 7.75, 0.63008, 0.88549, 0.25495
 8.00, 0.62535, 0.92473, 0.26037
 8.25, 0.62007, 0.96648, 0.26700
 8.50, 0.61649, 1.00901, 0.27526
 8.75, 0.61233, 1.05110, 0.28558
 9.00, 0.60606, 1.09370, 0.29833
 9.25, 0.60003, 1.13774, 0.31269
 9.50, 0.59524, 1.18282, 0.32699
 9.75, 0.59024, 1.22908, 0.34019
10.00, 0.58515, 1.27741, 0.35268
10.25, 0.58030, 1.32785, 0.36513
10.50, 0.57376, 1.38043, 0.37744
10.75, 0.56488, 1.43625, 0.39011
11.00, 0.55625, 1.49601, 0.40446
11.25, 0.54909, 1.55938, 0.42105
11.50, 0.54168, 1.62666, 0.44029
11.75, 0.53321, 1.69923, 0.46428
12.00, 0.52438, 1.77814, 0.49494
12.25, 0.51475, 1.86408, 0.53161
12.50, 0.50400, 1.95819, 0.57250
12.75, 0.49395, 2.06178, 0.61559
13.00, 0.48581, 2.17413, 0.65763
13.25, 0.47817, 2.29371, 0.69661
13.50, 0.47010, 2.42170, 0.73405
13.75, 0.46326, 2.55900, 0.76996
14.00, 0.45882, 2.70228, 0.80108
14.25, 0.45462, 2.84655, 0.82453
14.50, 0.44655, 2.98866, 0.83884
14.75, 0.43022, 3.12556, 0.84180
15.00, 0.40089, 3.25204, 0.83309
15.25, 0.35489, 3.36378, 0.81793
15.50, 0.29353, 3.46095, 0.80494
15.75, 0.22542, 3.54779, 0.80151
16.00, 0.16296, 3.62709, 0.81348
16.25, 0.11492, 3.69152, 0.84899
16.50, 0.08181, 3.72805, 0.92297
16.75, 0.05840, 3.73068, 1.05611
17.00, 0.03978, 3.67854, 1.34170
17.25, 0.02466, 3.48300, 2.06053
17.50, 0.01378, 3.14998, 3.02753
17.75, 0.00732, 2.86813, 3.65676
18.00, 0.00440, 2.70077, 3.96831
18.25, 0.00388, 2.49817, 4.25200
18.50, 0.00476, 2.18472, 4.48585
18.75, 0.00596, 1.81616, 4.49537
19.00, 0.00634, 1.48685, 4.28058
19.25, 0.00541, 1.22113, 3.94844
19.50, 0.00367, 1.09462, 3.74685
19.75, 0.00207, 0.99838, 3.57601
20.00, 0.00133, 0.88446, 3.33721
20.25, 0.00178, 0.77680, 3.06719
20.50, 0.00353, 0.74187, 2.95024
20.75, 0.00639, 0.68766, 2.79688
21.00, 0.00958, 0.50365, 2.27814
21.25, 0.01189, 0.38805, 1.90037
21.50, 0.01239, 0.36741, 1.82218
21.75, 0.01106, 0.26789, 1.48626
22.00, 0.00865, 0.08536, 0.80608
22.25, 0.00603, 0.00974, 0.48433
22.50, 0.00375, -0.00385, 0.42225
22.75, 0.00204, -0.00605, 0.41142
23.00, 0.00095, -0.00627, 0.40867
23.25, 0.00037, -0.00644, 0.40753
23.50, 0.00012, -0.00683, 0.40553
23.75, 0.00003, -0.00710, 0.40356
24.00, 0.00001, -0.00754, 0.40133
24.25, 0.00000, -0.00773, 0.40043
24.50, 0.00000, -0.00789, 0.39978
24.75, 0.00000, -0.00797, 0.39947
25.00, 0.00000, -0.00799, 0.39933
