    z,     phi,       u,       T
    d,        ,  rt(gd),      gd
 0.00, 0.50084, 0.00786, 0.00700
 0.25, 0.60008, 0.00897, 0.00706
 0.50, 0.68516, 0.01040, 0.00747
 0.75, 0.73451, 0.01255, 0.00846
 1.00, 0.74759, 0.01590, 0.01024
 1.25, 0.74580, 0.02043, 0.01272
 1.50, 0.74456, 0.02534, 0.01550
 1.75, 0.74024, 0.03009, 0.01845
 2.00, 0.73192, 0.03485, 0.02183
 2.25, 0.72891, 0.03953, 0.02580
 2.50, 0.73079, 0.04354, 0.03031
 2.75, 0.72755, 0.04671, 0.03568
 3.00, 0.72029, 0.04938, 0.04236
 3.25, 0.71770, 0.05153, 0.05018
 3.50, 0.71762, 0.05278, 0.05878
 3.75, 0.71342, 0.05311, 0.06838
 4.00, 0.70795, 0.05307, 0.07896
 4.25, 0.70415, 0.05340, 0.08950
 4.50, 0.69703, 0.05477, 0.09954
 4.75, 0.68621, 0.05817, 0.11045
 5.00, 0.67874, 0.06559, 0.12457
 5.25, 0.67295, 0.08045, 0.14453
 5.50, 0.65787, 0.10709, 0.17439
 5.75, 0.62966, 0.14851, 0.21848
 6.00, 0.58969, 0.20178, 0.27586
 6.25, 0.52941, 0.25807, 0.33940
 6.50, 0.43780, 0.31171, 0.40460
 6.75, 0.32333, 0.36644, 0.47506
 7.00, 0.21306, 0.43047, 0.55621
 7.25, 0.12938, 0.50696, 0.64566
 7.50, 0.07593, 0.58897, 0.73244
 7.75, 0.04430, 0.66536, 0.80622
 8.00, 0.02556, 0.72785, 0.86299
 8.25, 0.01463, 0.76492, 0.90260
 8.50, 0.00889, 0.73906, 0.92070
 8.75, 0.00671, 0.64920, 0.90946
 9.00, 0.00719, 0.54356, 0.86335
 9.25, 0.01001, 0.46294, 0.81231
 9.50, 0.01477, 0.39384, 0.75111
 9.75, 0.01992, 0.34410, 0.69548
10.00, 0.02294, 0.31836, 0.66492
10.25, 0.02220, 0.29256, 0.63443
10.50, 0.01839, 0.26056, 0.58918
10.75, 0.01371, 0.23635, 0.55017
11.00, 0.00987, 0.21818, 0.51986
11.25, 0.00731, 0.19969, 0.49251
11.50, 0.00564, 0.17523, 0.45823
11.75, 0.00443, 0.15241, 0.42152
12.00, 0.00340, 0.13331, 0.38689
12.25, 0.00246, 0.11794, 0.35925
12.50, 0.00163, 0.10502, 0.33603
12.75, 0.00096, 0.09394, 0.31550
13.00, 0.00050, 0.08466, 0.29932
13.25, 0.00022, 0.07640, 0.28599
13.50, 0.00008, 0.06903, 0.27421
13.75, 0.00003, 0.06230, 0.26319
14.00, 0.00001, 0.05616, 0.25342
14.25, 0.00000, 0.05098, 0.24573
14.50, 0.00000, 0.04671, 0.23970
14.75, 0.00000, 0.04275, 0.23415
15.00, 0.00000, 0.03902, 0.22937
15.25, 0.00000, 0.03556, 0.22532
15.50, 0.00000, 0.03231, 0.22172
15.75, 0.00000, 0.02951, 0.21898
16.00, 0.00000, 0.02717, 0.21681
16.25, 0.00000, 0.02531, 0.21530
16.50, 0.00000, 0.02368, 0.21407
16.75, 0.00000, 0.02212, 0.21262
17.00, 0.00000, 0.02066, 0.21102
17.25, 0.00000, 0.01934, 0.20944
17.50, 0.00000, 0.01825, 0.20847
17.75, 0.00000, 0.01731, 0.20798
18.00, 0.00000, 0.01649, 0.20776
18.25, 0.00000, 0.01573, 0.20762
18.50, 0.00000, 0.01500, 0.20749
18.75, 0.00000, 0.01434, 0.20745
19.00, 0.00000, 0.01377, 0.20761
19.25, 0.00000, 0.01328, 0.20793
19.50, 0.00000, 0.01285, 0.20837
19.75, 0.00000, 0.01246, 0.20884
20.00, 0.00000, 0.01209, 0.20925
20.25, 0.00000, 0.01173, 0.20958
20.50, 0.00000, 0.01139, 0.20986
20.75, 0.00000, 0.01111, 0.21015
21.00, 0.00000, 0.01086, 0.21045
21.25, 0.00000, 0.01064, 0.21076
21.50, 0.00000, 0.01044, 0.21107
21.75, 0.00000, 0.01023, 0.21137
22.00, 0.00000, 0.01004, 0.21167
22.25, 0.00000, 0.00985, 0.21193
22.50, 0.00000, 0.00965, 0.21211
22.75, 0.00000, 0.00945, 0.21223
23.00, 0.00000, 0.00924, 0.21231
23.25, 0.00000, 0.00904, 0.21239
23.50, 0.00000, 0.00884, 0.21248
23.75, 0.00000, 0.00865, 0.21259
24.00, 0.00000, 0.00847, 0.21271
24.25, 0.00000, 0.00829, 0.21281
24.50, 0.00000, 0.00812, 0.21286
24.75, 0.00000, 0.00794, 0.21286
25.00, 0.00000, 0.00777, 0.21282
