    z,     phi,       u,       T
    d,        ,  rt(gd),      gd
 0.00, 0.64616, 0.03591, 0.01925
 0.25, 0.70876, 0.03916, 0.02007
 0.50, 0.74084, 0.04450, 0.02201
 0.75, 0.74434, 0.05327, 0.02539
 1.00, 0.73674, 0.06580, 0.03002
 1.25, 0.73206, 0.08031, 0.03505
 1.50, 0.72650, 0.09492, 0.03993
 1.75, 0.71481, 0.11009, 0.04495
 2.00, 0.70532, 0.12666, 0.05057
 2.25, 0.70383, 0.14378, 0.05700
 2.50, 0.70190, 0.16095, 0.06481
 2.75, 0.69303, 0.17916, 0.07499
 3.00, 0.68206, 0.19860, 0.08771
 3.25, 0.67265, 0.21800, 0.10161
 3.50, 0.66363, 0.23697, 0.11510
 3.75, 0.65811, 0.25625, 0.12732
 4.00, 0.65991, 0.27576, 0.13781
 4.25, 0.66391, 0.29529, 0.14692
 4.50, 0.66338, 0.31614, 0.15607
 4.75, 0.66017, 0.33934, 0.16650
 5.00, 0.65783, 0.36354, 0.17843
 5.25, 0.65443, 0.38721, 0.19236
 5.50, 0.64898, 0.41068, 0.20952
 5.75, 0.64393, 0.43446, 0.22921
 6.00, 0.63799, 0.45827, 0.24925
 6.25, 0.62775, 0.48273, 0.26898
 6.50, 0.61604, 0.50876, 0.28863
 6.75, 0.60820, 0.53511, 0.30761
 7.00, 0.60338, 0.55942, 0.32627
 7.25, 0.59818, 0.58105, 0.34618
 7.50, 0.59336, 0.60070, 0.36735
 7.75, 0.59010, 0.61874, 0.38749
 8.00, 0.58656, 0.63564, 0.40494
 8.25, 0.58197, 0.65252, 0.42118
 8.50, 0.57750, 0.67042, 0.44000
 8.75, 0.57192, 0.68935, 0.46416
 9.00, 0.56321, 0.70870, 0.49347
 9.25, 0.55302, 0.72776, 0.52623
 9.50, 0.54434, 0.74591, 0.56032
 9.75, 0.53735, 0.76377, 0.59394
10.00, 0.53142, 0.78305, 0.62654
10.25, 0.52731, 0.80509, 0.65986
10.50, 0.52494, 0.83026, 0.69737
10.75, 0.52242, 0.85956, 0.74374
11.00, 0.51838, 0.89659, 0.80292
11.25, 0.51238, 0.94746, 0.87769
11.50, 0.50333, 1.02050, 0.97461
11.75, 0.48959, 1.12427, 1.10643
12.00, 0.46945, 1.26221, 1.27855
12.25, 0.43962, 1.42604, 1.47092
12.50, 0.39524, 1.59717, 1.64767
12.75, 0.33380, 1.75608, 1.78380
13.00, 0.25946, 1.88680, 1.87411
13.25, 0.18267, 1.98191, 1.92940
13.50, 0.11515, 2.04403, 1.96632
13.75, 0.06448, 2.07649, 2.00525
14.00, 0.03206, 2.07825, 2.06726
14.25, 0.01449, 2.05873, 2.14104
14.50, 0.00660, 2.03537, 2.20135
14.75, 0.00371, 2.01073, 2.25560
15.00, 0.00267, 1.98720, 2.29454
15.25, 0.00198, 1.96948, 2.31864
15.50, 0.00126, 1.95696, 2.33700
15.75, 0.00064, 1.94650, 2.35176
16.00, 0.00026, 1.93719, 2.36244
16.25, 0.00008, 1.92939, 2.37012
16.50, 0.00002, 1.92396, 2.37417
16.75, 0.00000, 1.92002, 2.37720
17.00, 0.00000, 1.91709, 2.38091
17.25, 0.00000, 1.91488, 2.38480
17.50, 0.00000, 1.91219, 2.38978
17.75, 0.00000, 1.90852, 2.39385
18.00, 0.00000, 1.90410, 2.39605
18.25, 0.00000, 1.89976, 2.39729
18.50, 0.00000, 1.89623, 2.39802
18.75, 0.00000, 1.89315, 2.39880
19.00, 0.00000, 1.89059, 2.39973
19.25, 0.00000, 1.88827, 2.40120
19.50, 0.00000, 1.88595, 2.40404
19.75, 0.00000, 1.88410, 2.40649
20.00, 0.00000, 1.88222, 2.40847
20.25, 0.00000, 1.87973, 2.41079
20.50, 0.00000, 1.87764, 2.41292
20.75, 0.00000, 1.87609, 2.41464
21.00, 0.00000, 1.87451, 2.41702
21.25, 0.00000, 1.87296, 2.41952
21.50, 0.00000, 1.87153, 2.42161
21.75, 0.00000, 1.87030, 2.42359
22.00, 0.00000, 1.86906, 2.42520
22.25, 0.00000, 1.86778, 2.42608
22.50, 0.00000, 1.86687, 2.42621
22.75, 0.00000, 1.86655, 2.42602
23.00, 0.00000, 1.86662, 2.42580
23.25, 0.00000, 1.86688, 2.42552
23.50, 0.00000, 1.86716, 2.42533
23.75, 0.00000, 1.86728, 2.42543
24.00, 0.00000, 1.86722, 2.42560
24.25, 0.00000, 1.86708, 2.42553
24.50, 0.00000, 1.86697, 2.42522
24.75, 0.00000, 1.86698, 2.42482
25.00, 0.00000, 1.86715, 2.42443
