    z,     phi,       u,       T
    d,        ,  rt(gd),      gd
 0.00, 0.62248, 0.03623, 0.01784
 0.25, 0.69082, 0.03851, 0.01757
 0.50, 0.72747, 0.04214, 0.01819
 0.75, 0.73241, 0.04808, 0.02006
 1.00, 0.72399, 0.05677, 0.02323
 1.25, 0.72004, 0.06727, 0.02719
 1.50, 0.71886, 0.07861, 0.03146
 1.75, 0.71274, 0.09148, 0.03624
 2.00, 0.70677, 0.10656, 0.04164
 2.25, 0.70657, 0.12272, 0.04716
 2.50, 0.70555, 0.13900, 0.05261
 2.75, 0.69952, 0.15630, 0.05853
 3.00, 0.69513, 0.17509, 0.06523
 3.25, 0.69429, 0.19406, 0.07285
 3.50, 0.68947, 0.21274, 0.08214
 3.75, 0.67917, 0.23229, 0.09366
 4.00, 0.67012, 0.25290, 0.10665
 4.25, 0.66386, 0.27339, 0.11982
 4.50, 0.65704, 0.29390, 0.13304
 4.75, 0.65156, 0.31540, 0.14699
 5.00, 0.65078, 0.33702, 0.16152
 5.25, 0.65120, 0.35716, 0.17581
 5.50, 0.64866, 0.37579, 0.18945
 5.75, 0.64502, 0.39358, 0.20239
 6.00, 0.64210, 0.41073, 0.21479
 6.25, 0.63795, 0.42746, 0.22739
 6.50, 0.63310, 0.44423, 0.24100
 6.75, 0.63048, 0.46059, 0.25586
 7.00, 0.62839, 0.47549, 0.27201
 7.25, 0.62290, 0.48843, 0.28980
 7.50, 0.61540, 0.49936, 0.30908
 7.75, 0.60998, 0.50829, 0.32916
 8.00, 0.60715, 0.51571, 0.34970
 8.25, 0.60544, 0.52256, 0.37104
 8.50, 0.60395, 0.52950, 0.39392
 8.75, 0.60040, 0.53628, 0.41903
 9.00, 0.59270, 0.54231, 0.44586
 9.25, 0.58294, 0.54741, 0.47259
 9.50, 0.57442, 0.55169, 0.49776
 9.75, 0.56687, 0.55535, 0.52182
10.00, 0.55911, 0.55881, 0.54671
10.25, 0.55228, 0.56252, 0.57450
10.50, 0.54667, 0.56696, 0.60622
10.75, 0.54046, 0.57332, 0.64127
11.00, 0.53343, 0.58456, 0.67928
11.25, 0.52700, 0.60645, 0.72455
11.50, 0.52033, 0.64744, 0.79013
11.75, 0.51036, 0.71887, 0.90211
12.00, 0.49416, 0.83245, 1.08937
12.25, 0.46786, 0.99386, 1.35752
12.50, 0.42622, 1.19565, 1.66767
12.75, 0.36697, 1.41543, 1.95082
13.00, 0.29434, 1.62554, 2.15609
13.25, 0.21729, 1.80452, 2.27568
13.50, 0.14564, 1.94214, 2.33352
13.75, 0.08733, 2.03755, 2.36980
14.00, 0.04650, 2.08729, 2.45457
14.25, 0.02250, 2.08002, 2.65286
14.50, 0.01108, 2.03815, 2.89166
14.75, 0.00695, 1.99188, 3.09575
15.00, 0.00584, 1.94798, 3.25056
15.25, 0.00520, 1.90873, 3.36980
15.50, 0.00410, 1.88004, 3.46093
15.75, 0.00270, 1.86263, 3.52076
16.00, 0.00147, 1.84975, 3.56279
16.25, 0.00068, 1.83524, 3.60285
16.50, 0.00027, 1.82204, 3.63687
16.75, 0.00010, 1.81107, 3.66237
17.00, 0.00003, 1.80209, 3.68172
17.25, 0.00001, 1.79348, 3.69740
17.50, 0.00000, 1.78516, 3.71177
17.75, 0.00000, 1.77715, 3.73044
18.00, 0.00000, 1.76861, 3.75508
18.25, 0.00000, 1.76052, 3.77696
18.50, 0.00000, 1.75341, 3.79408
18.75, 0.00000, 1.74638, 3.80868
19.00, 0.00000, 1.73813, 3.82194
19.25, 0.00000, 1.73008, 3.83416
19.50, 0.00000, 1.72312, 3.84689
19.75, 0.00000, 1.71601, 3.86132
20.00, 0.00000, 1.70824, 3.87656
20.25, 0.00000, 1.70091, 3.89423
20.50, 0.00000, 1.69447, 3.91073
20.75, 0.00000, 1.68911, 3.92353
21.00, 0.00000, 1.68477, 3.93403
21.25, 0.00000, 1.68111, 3.94335
21.50, 0.00000, 1.67775, 3.95248
21.75, 0.00000, 1.67380, 3.96175
22.00, 0.00000, 1.66938, 3.96933
22.25, 0.00000, 1.66568, 3.97511
22.50, 0.00000, 1.66325, 3.97919
22.75, 0.00000, 1.66194, 3.98166
23.00, 0.00000, 1.66127, 3.98366
23.25, 0.00000, 1.66090, 3.98564
23.50, 0.00000, 1.66073, 3.98732
23.75, 0.00000, 1.66074, 3.98854
24.00, 0.00000, 1.66083, 3.98933
24.25, 0.00000, 1.66092, 3.98988
24.50, 0.00000, 1.66106, 3.99015
24.75, 0.00000, 1.66125, 3.99023
25.00, 0.00000, 1.66145, 3.99043
