    z,     phi,       u,       T
    d,        ,  rt(gd),      gd
 0.00, 0.59450, 0.07685, 0.03344
 0.25, 0.66861, 0.08392, 0.03553
 0.50, 0.71203, 0.09521, 0.04013
 0.75, 0.72045, 0.11441, 0.04866
 1.00, 0.71061, 0.14391, 0.06139
 1.25, 0.70299, 0.18082, 0.07633
 1.50, 0.69852, 0.21990, 0.09148
 1.75, 0.68819, 0.26115, 0.10711
 2.00, 0.67572, 0.30691, 0.12342
 2.25, 0.66943, 0.35442, 0.13889
 2.50, 0.66581, 0.39974, 0.15298
 2.75, 0.65966, 0.44409, 0.16664
 3.00, 0.65508, 0.48895, 0.18015
 3.25, 0.65370, 0.53176, 0.19358
 3.50, 0.64924, 0.57117, 0.20856
 3.75, 0.64068, 0.60960, 0.22674
 4.00, 0.63442, 0.64828, 0.24730
 4.25, 0.63125, 0.68620, 0.26823
 4.50, 0.62628, 0.72421, 0.28893
 4.75, 0.61953, 0.76397, 0.30946
 5.00, 0.61364, 0.80439, 0.32925
 5.25, 0.60665, 0.84380, 0.34881
 5.50, 0.59734, 0.88333, 0.37012
 5.75, 0.58983, 0.92421, 0.39363
 6.00, 0.58593, 0.96512, 0.41775
 6.25, 0.58176, 1.00507, 0.44161
 6.50, 0.57547, 1.04514, 0.46591
 6.75, 0.56931, 1.08599, 0.49167
 7.00, 0.56332, 1.12693, 0.51984
 7.25, 0.55546, 1.16803, 0.55143
 7.50, 0.54667, 1.21005, 0.58712
 7.75, 0.53876, 1.25267, 0.62602
 8.00, 0.53016, 1.29479, 0.66723
 8.25, 0.51897, 1.33615, 0.71260
 8.50, 0.50623, 1.37800, 0.76439
 8.75, 0.49296, 1.42250, 0.82400
 9.00, 0.47797, 1.47295, 0.89501
 9.25, 0.46052, 1.53413, 0.98353
 9.50, 0.44130, 1.61128, 1.09731
 9.75, 0.42014, 1.71050, 1.24701
10.00, 0.39626, 1.84077, 1.44334
10.25, 0.37103, 2.01166, 1.68733
10.50, 0.34793, 2.22749, 1.96013
10.75, 0.32969, 2.48168, 2.21663
11.00, 0.31665, 2.75216, 2.40091
11.25, 0.30654, 3.00766, 2.48868
11.50, 0.29449, 3.21895, 2.50715
11.75, 0.27438, 3.37059, 2.50817
12.00, 0.24232, 3.46626, 2.52547
12.25, 0.19965, 3.52021, 2.56198
12.50, 0.15237, 3.54761, 2.60449
12.75, 0.10765, 3.55949, 2.64374
13.00, 0.07055, 3.56310, 2.67655
13.25, 0.04295, 3.56308, 2.70212
13.50, 0.02425, 3.56155, 2.72223
13.75, 0.01267, 3.55899, 2.73778
14.00, 0.00610, 3.55578, 2.74902
14.25, 0.00269, 3.55217, 2.75779
14.50, 0.00108, 3.54826, 2.76540
14.75, 0.00039, 3.54401, 2.77255
15.00, 0.00013, 3.53962, 2.77879
15.25, 0.00004, 3.53519, 2.78329
15.50, 0.00001, 3.53093, 2.78564
15.75, 0.00000, 3.52719, 2.78671
16.00, 0.00000, 3.52374, 2.78762
16.25, 0.00000, 3.52010, 2.78869
16.50, 0.00000, 3.51643, 2.79005
16.75, 0.00000, 3.51283, 2.79214
17.00, 0.00000, 3.50929, 2.79438
17.25, 0.00000, 3.50624, 2.79575
17.50, 0.00000, 3.50392, 2.79633
17.75, 0.00000, 3.50207, 2.79599
18.00, 0.00000, 3.50040, 2.79514
18.25, 0.00000, 3.49873, 2.79457
18.50, 0.00000, 3.49698, 2.79448
18.75, 0.00000, 3.49513, 2.79432
19.00, 0.00000, 3.49322, 2.79402
19.25, 0.00000, 3.49140, 2.79357
19.50, 0.00000, 3.48973, 2.79249
19.75, 0.00000, 3.48809, 2.79070
20.00, 0.00000, 3.48639, 2.78881
20.25, 0.00000, 3.48480, 2.78736
20.50, 0.00000, 3.48355, 2.78625
20.75, 0.00000, 3.48275, 2.78527
21.00, 0.00000, 3.48228, 2.78439
21.25, 0.00000, 3.48194, 2.78367
21.50, 0.00000, 3.48156, 2.78321
21.75, 0.00000, 3.48107, 2.78291
22.00, 0.00000, 3.48053, 2.78220
22.25, 0.00000, 3.48003, 2.78104
22.50, 0.00000, 3.47957, 2.77980
22.75, 0.00000, 3.47914, 2.77885
23.00, 0.00000, 3.47866, 2.77827
23.25, 0.00000, 3.47809, 2.77796
23.50, 0.00000, 3.47742, 2.77797
23.75, 0.00000, 3.47670, 2.77851
24.00, 0.00000, 3.47595, 2.77942
24.25, 0.00000, 3.47523, 2.78005
24.50, 0.00000, 3.47462, 2.78028
24.75, 0.00000, 3.47418, 2.78031
25.00, 0.00000, 3.47394, 2.78025
