    z,     phi,       u,       T
    d,        ,  rt(gd),      gd
 0.00, 0.52683, 0.00733, 0.00806
 0.25, 0.61748, 0.00864, 0.00811
 0.50, 0.69302, 0.01035, 0.00842
 0.75, 0.73627, 0.01286, 0.00918
 1.00, 0.75014, 0.01653, 0.01059
 1.25, 0.75415, 0.02111, 0.01266
 1.50, 0.75807, 0.02571, 0.01524
 1.75, 0.75561, 0.02988, 0.01834
 2.00, 0.74737, 0.03388, 0.02210
 2.25, 0.74372, 0.03764, 0.02636
 2.50, 0.74464, 0.04061, 0.03087
 2.75, 0.74229, 0.04251, 0.03593
 3.00, 0.73851, 0.04355, 0.04195
 3.25, 0.73834, 0.04391, 0.04886
 3.50, 0.73722, 0.04371, 0.05651
 3.75, 0.73124, 0.04310, 0.06521
 4.00, 0.72513, 0.04244, 0.07492
 4.25, 0.72042, 0.04231, 0.08493
 4.50, 0.71279, 0.04324, 0.09492
 4.75, 0.70424, 0.04578, 0.10537
 5.00, 0.69920, 0.05093, 0.11628
 5.25, 0.69174, 0.06032, 0.12714
 5.50, 0.67383, 0.07574, 0.13854
 5.75, 0.64773, 0.09787, 0.15245
 6.00, 0.61411, 0.12451, 0.17058
 6.25, 0.56056, 0.15221, 0.19320
 6.50, 0.47807, 0.18040, 0.22044
 6.75, 0.37963, 0.21165, 0.25275
 7.00, 0.28973, 0.24732, 0.28841
 7.25, 0.22239, 0.28388, 0.32194
 7.50, 0.17671, 0.31574, 0.34873
 7.75, 0.14705, 0.33806, 0.36816
 8.00, 0.12947, 0.34988, 0.38509
 8.25, 0.12025, 0.35824, 0.40783
 8.50, 0.11391, 0.36582, 0.43719
 8.75, 0.10514, 0.37407, 0.47339
 9.00, 0.09213, 0.38125, 0.51129
 9.25, 0.07723, 0.38396, 0.54528
 9.50, 0.06387, 0.38213, 0.57476
 9.75, 0.05323, 0.37754, 0.60047
10.00, 0.04408, 0.37189, 0.62402
10.25, 0.03515, 0.36682, 0.64251
10.50, 0.02664, 0.36332, 0.65552
10.75, 0.01959, 0.36008, 0.66466
11.00, 0.01446, 0.35610, 0.67037
11.25, 0.01086, 0.35297, 0.67544
11.50, 0.00813, 0.35045, 0.68132
11.75, 0.00590, 0.34745, 0.68423
12.00, 0.00412, 0.34421, 0.68493
12.25, 0.00281, 0.34125, 0.68557
12.50, 0.00194, 0.33793, 0.68625
12.75, 0.00140, 0.33403, 0.68483
13.00, 0.00105, 0.32938, 0.68203
13.25, 0.00078, 0.32448, 0.67910
13.50, 0.00055, 0.32027, 0.67632
13.75, 0.00034, 0.31644, 0.67366
14.00, 0.00018, 0.31272, 0.67086
14.25, 0.00008, 0.30873, 0.66770
14.50, 0.00003, 0.30424, 0.66426
14.75, 0.00001, 0.29937, 0.65991
15.00, 0.00000, 0.29416, 0.65466
15.25, 0.00000, 0.28888, 0.64897
15.50, 0.00000, 0.28403, 0.64390
15.75, 0.00000, 0.27959, 0.63978
16.00, 0.00000, 0.27554, 0.63609
16.25, 0.00000, 0.27157, 0.63231
16.50, 0.00000, 0.26755, 0.62818
16.75, 0.00000, 0.26352, 0.62376
17.00, 0.00000, 0.25935, 0.61905
17.25, 0.00000, 0.25496, 0.61411
17.50, 0.00000, 0.25050, 0.60912
17.75, 0.00000, 0.24634, 0.60466
18.00, 0.00000, 0.24239, 0.60087
18.25, 0.00000, 0.23863, 0.59715
18.50, 0.00000, 0.23515, 0.59338
18.75, 0.00000, 0.23199, 0.59001
19.00, 0.00000, 0.22897, 0.58685
19.25, 0.00000, 0.22578, 0.58317
19.50, 0.00000, 0.22252, 0.57906
19.75, 0.00000, 0.21938, 0.57491
20.00, 0.00000, 0.21633, 0.57088
20.25, 0.00000, 0.21340, 0.56725
20.50, 0.00000, 0.21069, 0.56404
20.75, 0.00000, 0.20822, 0.56091
21.00, 0.00000, 0.20588, 0.55777
21.25, 0.00000, 0.20363, 0.55478
21.50, 0.00000, 0.20140, 0.55188
21.75, 0.00000, 0.19915, 0.54896
22.00, 0.00000, 0.19689, 0.54599
22.25, 0.00000, 0.19476, 0.54318
22.50, 0.00000, 0.19276, 0.54054
22.75, 0.00000, 0.19084, 0.53816
23.00, 0.00000, 0.18897, 0.53594
23.25, 0.00000, 0.18718, 0.53383
23.50, 0.00000, 0.18551, 0.53198
23.75, 0.00000, 0.18394, 0.53039
24.00, 0.00000, 0.18252, 0.52906
24.25, 0.00000, 0.18123, 0.52795
24.50, 0.00000, 0.18000, 0.52697
24.75, 0.00000, 0.17880, 0.52597
25.00, 0.00000, 0.17756, 0.52482
