    z,     phi,       u,       T
    d,        ,  rt(gd),      gd
 0.00, 0.61390, 0.01762, 0.00522
 0.25, 0.68087, 0.01949, 0.00561
 0.50, 0.71824, 0.02272, 0.00634
 0.75, 0.72515, 0.02823, 0.00761
 1.00, 0.71711, 0.03639, 0.00945
 1.25, 0.70971, 0.04617, 0.01171
 1.50, 0.70148, 0.05621, 0.01435
 1.75, 0.68513, 0.06665, 0.01768
 2.00, 0.66569, 0.07828, 0.02205
 2.25, 0.65201, 0.09091, 0.02767
 2.50, 0.64304, 0.10425, 0.03514
 2.75, 0.63518, 0.11956, 0.04586
 3.00, 0.62934, 0.13922, 0.06174
 3.25, 0.62163, 0.16651, 0.08535
 3.50, 0.60057, 0.20770, 0.12129
 3.75, 0.56111, 0.27216, 0.17429
 4.00, 0.51103, 0.36441, 0.24010
 4.25, 0.45815, 0.47380, 0.30172
 4.50, 0.39950, 0.57999, 0.34521
 4.75, 0.32858, 0.66997, 0.37080
 5.00, 0.24772, 0.74220, 0.38473
 5.25, 0.16870, 0.79905, 0.39145
 5.50, 0.10353, 0.84209, 0.39377
 5.75, 0.05753, 0.87254, 0.39410
 6.00, 0.02918, 0.89290, 0.39416
 6.25, 0.01367, 0.90639, 0.39427
 6.50, 0.00601, 0.91561, 0.39433
 6.75, 0.00251, 0.92217, 0.39425
 7.00, 0.00099, 0.92690, 0.39405
 7.25, 0.00037, 0.93030, 0.39373
 7.50, 0.00013, 0.93274, 0.39340
 7.75, 0.00004, 0.93387, 0.39370
 8.00, 0.00001, 0.90607, 0.41120
 8.25, 0.00000, 0.76742, 0.45685
 8.50, 0.00000, 0.59907, 0.46241
 8.75, 0.00000, 0.49978, 0.44283
 9.00, 0.00000, 0.42555, 0.41507
 9.25, 0.00002, 0.37433, 0.38911
 9.50, 0.00012, 0.32343, 0.36073
 9.75, 0.00045, 0.27086, 0.32380
10.00, 0.00144, 0.24208, 0.30369
10.25, 0.00369, 0.19574, 0.26744
10.50, 0.00752, 0.15265, 0.22978
10.75, 0.01217, 0.12673, 0.20891
11.00, 0.01561, 0.08734, 0.17368
11.25, 0.01585, 0.04695, 0.13660
11.50, 0.01275, 0.02330, 0.11860
11.75, 0.00814, 0.01366, 0.11755
12.00, 0.00414, 0.01021, 0.12190
12.25, 0.00168, 0.00941, 0.12677
12.50, 0.00055, 0.00893, 0.13022
12.75, 0.00015, 0.00865, 0.13242
13.00, 0.00003, 0.00855, 0.13394
13.25, 0.00001, 0.00854, 0.13504
13.50, 0.00000, 0.00854, 0.13579
13.75, 0.00000, 0.00853, 0.13631
14.00, 0.00000, 0.00852, 0.13667
14.25, 0.00000, 0.00851, 0.13694
14.50, 0.00000, 0.00850, 0.13715
14.75, 0.00000, 0.00850, 0.13731
15.00, 0.00000, 0.00851, 0.13745
15.25, 0.00000, 0.00851, 0.13756
15.50, 0.00000, 0.00851, 0.13765
15.75, 0.00000, 0.00852, 0.13773
16.00, 0.00000, 0.00852, 0.13779
16.25, 0.00000, 0.00852, 0.13785
16.50, 0.00000, 0.00852, 0.13789
16.75, 0.00000, 0.00852, 0.13793
17.00, 0.00000, 0.00852, 0.13796
17.25, 0.00000, 0.00852, 0.13800
17.50, 0.00000, 0.00852, 0.13803
17.75, 0.00000, 0.00852, 0.13806
18.00, 0.00000, 0.00852, 0.13808
18.25, 0.00000, 0.00852, 0.13810
18.50, 0.00000, 0.00852, 0.13812
18.75, 0.00000, 0.00851, 0.13813
19.00, 0.00000, 0.00851, 0.13815
19.25, 0.00000, 0.00851, 0.13816
19.50, 0.00000, 0.00851, 0.13817
19.75, 0.00000, 0.00850, 0.13819
20.00, 0.00000, 0.00850, 0.13820
20.25, 0.00000, 0.00850, 0.13821
20.50, 0.00000, 0.00850, 0.13822
20.75, 0.00000, 0.00850, 0.13823
21.00, 0.00000, 0.00850, 0.13825
21.25, 0.00000, 0.00850, 0.13826
21.50, 0.00000, 0.00851, 0.13827
21.75, 0.00000, 0.00851, 0.13829
22.00, 0.00000, 0.00851, 0.13830
22.25, 0.00000, 0.00851, 0.13830
22.50, 0.00000, 0.00851, 0.13831
22.75, 0.00000, 0.00850, 0.13832
23.00, 0.00000, 0.00850, 0.13832
23.25, 0.00000, 0.00850, 0.13833
23.50, 0.00000, 0.00850, 0.13834
23.75, 0.00000, 0.00850, 0.13834
24.00, 0.00000,     NaN,     NaN
24.25, 0.00000,     NaN,     NaN
24.50, 0.00000,     NaN,     NaN
24.75, 0.00000,     NaN,     NaN
25.00, 0.00000,     NaN,     NaN
