    z,     phi,       u,       T
    d,        ,  rt(gd),      gd
 0.00, 0.82256, 0.12410, 0.08122
 0.25, 0.80416, 0.14040, 0.09064
 0.50, 0.76203, 0.17047, 0.10798
 0.75, 0.71746, 0.21857, 0.13358
 1.00, 0.68831, 0.28066, 0.16328
 1.25, 0.67224, 0.34734, 0.19358
 1.50, 0.65672, 0.41619, 0.22568
 1.75, 0.64070, 0.49054, 0.25982
 2.00, 0.62981, 0.56857, 0.29280
 2.25, 0.62133, 0.64629, 0.32379
 2.50, 0.61094, 0.72551, 0.35422
 2.75, 0.60159, 0.80820, 0.38261
 3.00, 0.59451, 0.89087, 0.40741
 3.25, 0.58519, 0.97204, 0.43198
 3.50, 0.57355, 1.05527, 0.45937
 3.75, 0.56459, 1.14064, 0.48695
 4.00, 0.55832, 1.22366, 0.51224
 4.25, 0.55121, 1.30376, 0.53742
 4.50, 0.54424, 1.38405, 0.56391
 4.75, 0.53936, 1.46481, 0.59045
 5.00, 0.53359, 1.54522, 0.61815
 5.25, 0.52464, 1.62741, 0.65105
 5.50, 0.51542, 1.71312, 0.69011
 5.75, 0.50789, 1.80076, 0.73309
 6.00, 0.49978, 1.88953, 0.78067
 6.25, 0.49025, 1.98181, 0.83501
 6.50, 0.48129, 2.07940, 0.89490
 6.75, 0.47264, 2.18198, 0.95842
 7.00, 0.46192, 2.29108, 1.02650
 7.25, 0.44975, 2.41034, 1.09928
 7.50, 0.43900, 2.53938, 1.17340
 7.75, 0.42992, 2.67419, 1.24802
 8.00, 0.42037, 2.81457, 1.32792
 8.25, 0.40988, 2.96381, 1.41706
 8.50, 0.40011, 3.12366, 1.51288
 8.75, 0.39223, 3.29359, 1.61210
 9.00, 0.38615, 3.47317, 1.71800
 9.25, 0.38143, 3.66429, 1.83731
 9.50, 0.37731, 3.87138, 1.97457
 9.75, 0.37221, 4.09871, 2.12814
10.00, 0.36426, 4.34851, 2.28638
10.25, 0.35212, 4.61800, 2.42520
10.50, 0.33484, 4.89630, 2.52009
10.75, 0.31156, 5.16487, 2.56483
11.00, 0.28182, 5.39969, 2.57869
11.25, 0.24602, 5.58357, 2.59007
11.50, 0.20563, 5.71396, 2.61221
11.75, 0.16332, 5.79763, 2.64561
12.00, 0.12273, 5.84278, 2.69899
12.25, 0.08750, 5.84828, 2.83336
12.50, 0.05990, 5.77291, 3.31069
12.75, 0.04032, 5.49983, 4.69932
13.00, 0.02779, 4.98139, 6.85922
13.25, 0.02088, 4.37594, 8.67999
13.50, 0.01799, 3.83320, 9.69068
13.75, 0.01716, 3.38698, 10.07366
14.00, 0.01628, 3.02211, 10.08936
14.25, 0.01393, 2.69747, 9.88574
14.50, 0.01018, 2.42905, 9.56827
14.75, 0.00618, 2.22689, 9.23753
15.00, 0.00310, 2.07459, 8.93614
15.25, 0.00128, 1.94973, 8.66064
15.50, 0.00044, 1.83509, 8.38985
15.75, 0.00012, 1.72248, 8.10455
16.00, 0.00003, 1.61862, 7.81540
16.25, 0.00001, 1.52584, 7.53212
16.50, 0.00000, 1.43625, 7.24030
16.75, 0.00000, 1.34929, 6.94458
17.00, 0.00000, 1.26676, 6.65470
17.25, 0.00000, 1.18642, 6.36225
17.50, 0.00000, 1.10910, 6.06608
17.75, 0.00000, 1.03871, 5.78400
18.00, 0.00000, 0.97566, 5.52061
18.25, 0.00000, 0.91712, 5.26648
18.50, 0.00000, 0.86412, 5.03196
18.75, 0.00000, 0.81766, 4.82307
19.00, 0.00000, 0.77609, 4.63324
19.25, 0.00000, 0.73816, 4.45874
19.50, 0.00000, 0.70364, 4.29767
19.75, 0.00000, 0.67162, 4.14691
20.00, 0.00000, 0.64271, 4.01004
20.25, 0.00000, 0.61729, 3.88803
20.50, 0.00000, 0.59477, 3.77817
20.75, 0.00000, 0.57454, 3.67819
21.00, 0.00000, 0.55605, 3.58621
21.25, 0.00000, 0.53939, 3.50291
21.50, 0.00000, 0.52495, 3.43043
21.75, 0.00000, 0.51285, 3.36957
22.00, 0.00000, 0.50251, 3.31755
22.25, 0.00000, 0.49312, 3.27051
22.50, 0.00000, 0.48413, 3.22594
22.75, 0.00000, 0.47540, 3.18305
23.00, 0.00000, 0.46706, 3.14203
23.25, 0.00000, 0.45908, 3.10232
23.50, 0.00000, 0.45135, 3.06315
23.75, 0.00000, 0.44395, 3.02507
24.00, 0.00000, 0.43701, 2.98917
24.25, 0.00000, 0.43054, 2.95587
24.50, 0.00000, 0.42452, 2.92533
24.75, 0.00000, 0.41899, 2.89769
25.00, 0.00000, 0.41399, 2.87286
