    z,     phi,       u,       T
    d,        ,  rt(gd),      gd
 0.00, 0.36656, 0.15494, 0.12263
 0.25, 0.47051, 0.17264, 0.12585
 0.50, 0.57875, 0.19471, 0.13310
 0.75, 0.66298, 0.22639, 0.14834
 1.00, 0.70327, 0.27632, 0.17551
 1.25, 0.70745, 0.34981, 0.21318
 1.50, 0.69836, 0.43976, 0.25328
 1.75, 0.68585, 0.53333, 0.29200
 2.00, 0.66943, 0.62813, 0.33286
 2.25, 0.65474, 0.72751, 0.37563
 2.50, 0.64613, 0.82775, 0.41633
 2.75, 0.63689, 0.92610, 0.45650
 3.00, 0.62263, 1.02877, 0.49866
 3.25, 0.60916, 1.13891, 0.53896
 3.50, 0.59939, 1.25074, 0.57524
 3.75, 0.58901, 1.36194, 0.61305
 4.00, 0.57773, 1.47643, 0.65485
 4.25, 0.56918, 1.59282, 0.69627
 4.50, 0.56089, 1.70647, 0.73913
 4.75, 0.54830, 1.82165, 0.79228
 5.00, 0.53438, 1.94644, 0.85680
 5.25, 0.52400, 2.07995, 0.92395
 5.50, 0.51489, 2.21710, 0.99061
 5.75, 0.50316, 2.36019, 1.06201
 6.00, 0.49069, 2.51293, 1.13640
 6.25, 0.48019, 2.67032, 1.20608
 6.50, 0.46953, 2.82594, 1.27238
 6.75, 0.45620, 2.98232, 1.34279
 7.00, 0.44186, 3.14571, 1.41754
 7.25, 0.42910, 3.31643, 1.49229
 7.50, 0.41792, 3.49062, 1.56883
 7.75, 0.40733, 3.66748, 1.65232
 8.00, 0.39736, 3.84829, 1.74109
 8.25, 0.38828, 4.03183, 1.82718
 8.50, 0.37951, 4.21463, 1.90413
 8.75, 0.37011, 4.39435, 1.97326
 9.00, 0.35962, 4.57194, 2.04266
 9.25, 0.34839, 4.74942, 2.11736
 9.50, 0.33737, 4.92828, 2.19643
 9.75, 0.32704, 5.10880, 2.27525
10.00, 0.31665, 5.28759, 2.34552
10.25, 0.30447, 5.46084, 2.40049
10.50, 0.28889, 5.63003, 2.43816
10.75, 0.26910, 5.79783, 2.45382
11.00, 0.24495, 5.96270, 2.44333
11.25, 0.21700, 6.12179, 2.41101
11.50, 0.18671, 6.27300, 2.36876
11.75, 0.15632, 6.41291, 2.33052
12.00, 0.12813, 6.53781, 2.30045
12.25, 0.10367, 6.64319, 2.27766
12.50, 0.08339, 6.72612, 2.26179
12.75, 0.06691, 6.78881, 2.24950
13.00, 0.05346, 6.83653, 2.23086
13.25, 0.04222, 6.87080, 2.20822
13.50, 0.03253, 6.89389, 2.18995
13.75, 0.02395, 6.91149, 2.16818
14.00, 0.01637, 6.92622, 2.14491
14.25, 0.01006, 6.93799, 2.12607
14.50, 0.00540, 6.94728, 2.10959
14.75, 0.00247, 6.95498, 2.09309
15.00, 0.00095, 6.96192, 2.07683
15.25, 0.00030, 6.96797, 2.06355
15.50, 0.00008, 6.97309, 2.05225
15.75, 0.00002, 6.97741, 2.04181
16.00, 0.00000, 6.98100, 2.03153
16.25, 0.00000, 6.98414, 2.02127
16.50, 0.00000, 6.98698, 2.01107
16.75, 0.00000, 6.98932, 2.00133
17.00, 0.00000, 6.99106, 1.99294
17.25, 0.00000, 6.99250, 1.98583
17.50, 0.00000, 6.99399, 1.97941
17.75, 0.00000, 6.99584, 1.97310
18.00, 0.00000, 6.99793, 1.96661
18.25, 0.00000, 6.99990, 1.96020
18.50, 0.00000, 7.00157, 1.95415
18.75, 0.00000, 7.00295, 1.94875
19.00, 0.00000, 7.00414, 1.94412
19.25, 0.00000, 7.00519, 1.94018
19.50, 0.00000, 7.00602, 1.93707
19.75, 0.00000, 7.00673, 1.93464
20.00, 0.00000, 7.00757, 1.93266
20.25, 0.00000, 7.00854, 1.93095
20.50, 0.00000, 7.00958, 1.92942
20.75, 0.00000, 7.01061, 1.92791
21.00, 0.00000, 7.01159, 1.92611
21.25, 0.00000, 7.01250, 1.92408
21.50, 0.00000, 7.01331, 1.92209
21.75, 0.00000, 7.01397, 1.92009
22.00, 0.00000, 7.01451, 1.91804
22.25, 0.00000, 7.01503, 1.91610
22.50, 0.00000, 7.01559, 1.91454
22.75, 0.00000, 7.01613, 1.91361
23.00, 0.00000, 7.01660, 1.91305
23.25, 0.00000, 7.01709, 1.91237
23.50, 0.00000, 7.01761, 1.91158
23.75, 0.00000, 7.01810, 1.91083
24.00, 0.00000, 7.01853, 1.91022
24.25, 0.00000, 7.01887, 1.90985
24.50, 0.00000, 7.01912, 1.90981
24.75, 0.00000, 7.01933, 1.91005
25.00, 0.00000, 7.01953, 1.91054
