    z,     phi,       u,       T
    d,        ,  rt(gd),      gd
 0.00, 0.36020, 0.16141, 0.12293
 0.25, 0.46260, 0.18053, 0.13012
 0.50, 0.56941, 0.20443, 0.14178
 0.75, 0.65263, 0.23889, 0.16257
 1.00, 0.69256, 0.29371, 0.19730
 1.25, 0.69729, 0.37531, 0.24395
 1.50, 0.68966, 0.47565, 0.29152
 1.75, 0.67845, 0.57953, 0.33458
 2.00, 0.66113, 0.68414, 0.37817
 2.25, 0.64292, 0.79421, 0.42290
 2.50, 0.63017, 0.90592, 0.46391
 2.75, 0.61825, 1.01456, 0.50365
 3.00, 0.60311, 1.12574, 0.54725
 3.25, 0.59031, 1.24351, 0.59100
 3.50, 0.58226, 1.36146, 0.63016
 3.75, 0.57238, 1.47660, 0.67006
 4.00, 0.55821, 1.59579, 0.71652
 4.25, 0.54506, 1.72221, 0.76564
 4.50, 0.53465, 1.85039, 0.81333
 4.75, 0.52344, 1.97895, 0.86347
 5.00, 0.51168, 2.11290, 0.91809
 5.25, 0.50253, 2.25210, 0.97352
 5.50, 0.49426, 2.39145, 1.03088
 5.75, 0.48266, 2.53232, 1.09794
 6.00, 0.46854, 2.68184, 1.17626
 6.25, 0.45595, 2.84119, 1.25601
 6.50, 0.44572, 3.00486, 1.32901
 6.75, 0.43592, 3.17017, 1.39600
 7.00, 0.42603, 3.33895, 1.45944
 7.25, 0.41684, 3.51094, 1.52080
 7.50, 0.40818, 3.68340, 1.58286
 7.75, 0.39932, 3.85640, 1.64874
 8.00, 0.39033, 4.03204, 1.71815
 8.25, 0.38165, 4.21028, 1.78649
 8.50, 0.37309, 4.38929, 1.84932
 8.75, 0.36432, 4.56767, 1.90695
 9.00, 0.35545, 4.74465, 1.96426
 9.25, 0.34665, 4.91834, 2.02816
 9.50, 0.33758, 5.08782, 2.10021
 9.75, 0.32761, 5.25491, 2.17347
10.00, 0.31629, 5.42100, 2.23999
10.25, 0.30348, 5.58555, 2.29171
10.50, 0.28896, 5.74525, 2.32425
10.75, 0.27206, 5.89674, 2.33819
11.00, 0.25182, 6.03943, 2.33293
11.25, 0.22795, 6.17301, 2.30908
11.50, 0.20153, 6.29705, 2.27746
11.75, 0.17480, 6.41223, 2.25396
12.00, 0.14997, 6.51433, 2.25691
12.25, 0.12822, 6.59862, 2.28907
12.50, 0.10946, 6.66543, 2.34009
12.75, 0.09286, 6.71548, 2.39038
13.00, 0.07754, 6.75054, 2.42675
13.25, 0.06298, 6.77280, 2.44890
13.50, 0.04911, 6.78688, 2.46043
13.75, 0.03613, 6.79644, 2.46686
14.00, 0.02451, 6.80336, 2.46782
14.25, 0.01491, 6.80903, 2.46660
14.50, 0.00791, 6.81388, 2.46553
14.75, 0.00358, 6.81764, 2.46438
15.00, 0.00135, 6.82116, 2.46111
15.25, 0.00042, 6.82478, 2.45636
15.50, 0.00011, 6.82814, 2.45096
15.75, 0.00002, 6.83100, 2.44536
16.00, 0.00000, 6.83351, 2.44031
16.25, 0.00000, 6.83568, 2.43640
16.50, 0.00000, 6.83747, 2.43337
16.75, 0.00000, 6.83904, 2.43056
17.00, 0.00000, 6.84054, 2.42780
17.25, 0.00000, 6.84194, 2.42583
17.50, 0.00000, 6.84315, 2.42446
17.75, 0.00000, 6.84418, 2.42305
18.00, 0.00000, 6.84505, 2.42168
18.25, 0.00000, 6.84579, 2.42085
18.50, 0.00000, 6.84633, 2.42070
18.75, 0.00000, 6.84661, 2.42099
19.00, 0.00000, 6.84668, 2.42162
19.25, 0.00000, 6.84662, 2.42258
19.50, 0.00000, 6.84656, 2.42356
19.75, 0.00000, 6.84656, 2.42418
20.00, 0.00000, 6.84668, 2.42438
20.25, 0.00000, 6.84691, 2.42428
20.50, 0.00000, 6.84712, 2.42388
20.75, 0.00000, 6.84733, 2.42302
21.00, 0.00000, 6.84760, 2.42184
21.25, 0.00000, 6.84780, 2.42102
21.50, 0.00000, 6.84787, 2.42091
21.75, 0.00000, 6.84779, 2.42117
22.00, 0.00000, 6.84762, 2.42163
22.25, 0.00000, 6.84742, 2.42219
22.50, 0.00000, 6.84728, 2.42256
22.75, 0.00000, 6.84722, 2.42283
23.00, 0.00000, 6.84714, 2.42333
23.25, 0.00000, 6.84704, 2.42393
23.50, 0.00000, 6.84690, 2.42478
23.75, 0.00000, 6.84669, 2.42588
24.00, 0.00000, 6.84643, 2.42684
24.25, 0.00000, 6.84615, 2.42751
24.50, 0.00000, 6.84588, 2.42796
24.75, 0.00000, 6.84561, 2.42835
25.00, 0.00000, 6.84527, 2.42908
